Notebooks - R Basics
…
# view(surveys) # preview in the viewer window, avoid when rendering

select certain columns

select(surveys, plot_id, species_id, weight)

# A tibble: 34,786 × 3
   plot_id species_id weight
     <dbl> <chr>       <dbl>
 1       2 NL             NA
 2       2 NL             NA
 3       2 NL             NA
 4       2 NL             NA
 5       2 NL             NA
 6       2 NL             NA
 7       2 NL             NA
 8       2 NL             NA
 9       2 NL            218
10       2 NL             NA
# ℹ 34,776 more rows

select all columns except …

select(surveys, -sex)

# A tibble: 34,786 × 12
   record_id month   day  year plot_id species_id hindfoot_length weight genus  
       <dbl> <dbl> <dbl> <dbl>   <dbl> <chr>                <dbl>  <dbl> <chr>  
 1         1     7    16  1977       2 NL                      32     NA Neotoma
 2        72     8    19  1977       2 NL                      31     NA Neotoma
 3       224     9    13  1977       2 NL                      NA     NA Neotoma
 4       266    10    16  1977       2 NL                      NA     NA Neotoma
 5       349    11    12  1977       2 NL                      NA     NA Neotoma
 6       363    11    12  1977       2 NL                      NA     NA Neotoma
 7       435    12    10  1977       2 NL                      NA     NA Neotoma
 8       506     1     8  1978       2 NL                      NA     NA Neotoma
 9       588     2    18  1978       2 NL                      NA    218 Neotoma
10       661     3    11  1978       2 NL                      NA     NA Neotoma
# ℹ 34,776 more rows
# ℹ 3 more variables: species <chr>, taxa <chr>, plot_type <chr>

Select rows based on criteria

filter(surveys, year == 1995)

# A tibble: 1,180 × 13
   record_id month   day  year plot_id species_id sex   hindfoot_length weight
       <dbl> <dbl> <dbl> <dbl>   <dbl> <chr>      <chr>           <dbl>  <dbl>
 1     22314     6     7  1995       2 NL         M                  34     NA
 2     22728     9    23  1995       2 NL         F                  32    165
 3     22899    10    28  1995       2 NL         F                  32    171
 4     23032    12     2  1995       2 NL         F                  33     NA
 5     22003     1    11  1995       2 DM         M                  37     41
 6     22042     2     4  1995       2 DM         F                  36     45
 7     22044     2     4  1995       2 DM         M                  37     46
 8     22105     3     4  1995       2 DM         F                  37     49
 9     22109     3     4  1995       2 DM         M                  37     46
10     22168     4     1  1995       2 DM         M                  36     48
# ℹ 1,170 more rows
# ℹ 4 more variables: genus <chr>, species <chr>, taxa <chr>, plot_type <chr>
…
# two factors
surveys %>%
    group_by(sex, species) %>%
    summarise(mean_weight = mean(weight, na.rm = TRUE))

`summarise()` has grouped output by 'sex'. You can override using the `.groups`
argument.

# A tibble: 81 × 3
# Groups:   sex [3]
   sex   species     mean_weight
   <chr> <chr>             <dbl>
 1 F     albigula         154.  
 2 F     baileyi           30.2 
 3 F     eremicus          22.8 
 4 F     flavus             7.97
 5 F     fulvescens        13.7 
 6 F     fulviventer       69   
 7 F     hispidus          69.0 
 8 F     leucogaster       31.1 
 9 F     leucopus          19.3 
10 F     maniculatus       22.1 
# ℹ 71 more rows

surveys %>%
    group_by(species, sex) %>%
    summarise(mean_weight = mean(weight, na.rm = TRUE))

`summarise()` has grouped output by 'species'. You can override using the
`.groups` argument.

# A tibble: 81 × 3
# Groups:   species [40]
   species         sex   mean_weight
   <chr>           <chr>       <dbl>
 1 albigula        F           154. 
 2 albigula        M           166. 
 3 albigula        <NA>        168. 
 4 audubonii       <NA>        NaN  
 5 baileyi         F            30.2
 6 baileyi         M            33.8
 7 baileyi         <NA>         30.6
 8 bilineata       <NA>        NaN  
 9 brunneicapillus <NA>        NaN  
10 chlorurus       <NA>        NaN  
# ℹ 71 more rows

# to avoid using na.rm = FALSE each statistis
surveys %>%
    filter(!is.na(weight)) %>%
    group_by(species, sex) %>%
    summarise(mean_weight = mean(weight), sd_weight = sd(weight), sd_count = n())

`summarise()` has grouped output by 'species'. You can override using the
`.groups` argument.

# A tibble: 59 × 5
# Groups:   species [22]
   species  sex   mean_weight sd_weight sd_count
   <chr>    <chr>       <dbl>     <dbl>    <int>
 1 albigula F          154.      39.2        652
 2 albigula M          166.      49.0        484
 3 albigula <NA>       168.      44.2         16
 4 baileyi  F           30.2      5.27      1617
 5 baileyi  M           33.8      8.27      1188
 6 baileyi  <NA>        30.6      9.96         5
 7 eremicus F           22.8      4.57       568
 8 eremicus M           20.6      3.49       689
 9 eremicus <NA>        17.7      0.577        3
10 flavus   F            7.97     1.69       742
# ℹ 49 more rows

# arrange by mean weight
surveys %>%
    filter(!is.na(weight)) %>%
    group_by(species, sex) %>%
    summarise(mean_weight = mean(weight), sd_weight = sd(weight), sd_count = n()) %>%
    arrange(mean_weight)

`summarise()` has grouped output by 'species'. You can override using the
`.groups` argument.

# A tibble: 59 × 5
# Groups:   species [22]
   species   sex   mean_weight sd_weight sd_count
   <chr>     <chr>       <dbl>     <dbl>    <int>
 1 flavus    <NA>         6        1.63         4
 2 taylori   M            7.36     0.842       14
 3 flavus    M            7.89     1.59       802
 4 flavus    F            7.97     1.69       742
 5 taylori   F            9.16     2.24        31
 6 montanus  M            9.5      1.29         4
 7 megalotis M           10.1      1.73      1339
 8 montanus  F           11        2.16         4
 9 megalotis <NA>        11.1      2.57        12
10 megalotis F           11.1      2.56      1184
# ℹ 49 more rows

# in descending order
surveys %>%
    filter(!is.na(weight)) %>%
    group_by(species, sex) %>%
    summarise(mean_weight = mean(weight), sd_weight = sd(weight), sd_count = n()) %>%
    arrange(desc(mean_weight))

`summarise()` has grouped output by 'species'. You can override using the
`.groups` argument.

# A tibble: 59 × 5
# Groups:   species [22]
   species     sex   mean_weight sd_weight sd_count
   <chr>       <chr>       <dbl>     <dbl>    <int>
 1 albigula    <NA>        168.       44.2       16
 2 albigula    M           166.       49.0      484
 3 albigula    F           154.       39.2      652
 4 hispidus    <NA>        130        NA          1
 5 spilosoma   M           130        NA          1
 6 spectabilis M           122.       24.0     1220
 7 spectabilis <NA>        120        18.5       18
 8 spectabilis F           118.       21.5     1106
 9 fulviventer F            69        37.8       16
10 hispidus    F            69.0      29.7       98
# ℹ 49 more rows

# by count
surveys %>%
    filter(!is.na(weight)) %>%
    group_by(species, sex) %>%
    summarise(mean_weight = mean(weight), sd_weight = sd(weight), sd_count = n()) %>%
    arrange(sd_count)

`summarise()` has grouped output by 'species'. You can override using the
`.groups` argument.

# A tibble: 59 × 5
# Groups:   species [22]
   species     sex   mean_weight sd_weight sd_count
   <chr>       <chr>       <dbl>     <dbl>    <int>
 1 hispidus    <NA>        130      NA            1
 2 intermedius <NA>         18      NA            1
 3 leucopus    <NA>         25      NA            1
 4 spilosoma   F            57      NA            1
 5 spilosoma   M           130      NA            1
 6 fulviventer <NA>         40.5     6.36         2
 7 leucogaster <NA>         29      11.3          2
 8 eremicus    <NA>         17.7     0.577        3
 9 ordii       <NA>         50.7     6.51         3
10 sp.         F            20.7     1.15         3
# ℹ 49 more rows
…
